Designator,Val,Mid X,Mid Y,Rotation,Side
C1,10n,100.530000,-146.997500,180.000000,top
C2,100n,100.530000,-143.257500,0.000000,top
C3,10u,101.360000,-141.317500,180.000000,top
C4,100n,103.530000,-144.167500,90.000000,top
C5,22u,108.905000,-159.350000,-90.000000,top
C6,22u,110.000000,-162.970000,-90.000000,top
C7,100n,111.870000,-162.740000,90.000000,top
C8,100n,118.490000,-143.442500,-90.000000,top
C9,100n,126.096000,-143.456500,-90.000000,top
C10,470p,119.890000,-150.910000,-90.000000,top
C11,22n,121.500000,-150.910000,90.000000,top
C12,470p,123.110000,-150.910000,-90.000000,top
C13,22n,124.710000,-150.910000,90.000000,top
C14,1000p,128.900000,-165.810000,0.000000,top
C15,100n,125.480000,-160.960000,180.000000,top
C16,10u,134.980000,-163.410000,0.000000,top
C17,100n,123.590000,-143.440000,-90.000000,top
C19,100n,94.742000,-150.524000,0.000000,top
D1,LED_GREEN,94.905000,-152.400000,180.000000,top
D2,LED_RED,94.910000,-156.060000,180.000000,top
D3,B5819W,100.225000,-158.380000,270.000000,top
F1,MF-FSMF050X,100.535000,-139.377500,0.000000,top
FB1,FerriteBead,100.760000,-145.127500,0.000000,top
L1,"4,7-22uH",104.620000,-156.530000,180.000000,top
Q1,MMBT2222A,128.910000,-163.000000,270.000000,top
R1,1.5k,100.530000,-148.607500,0.000000,top
R2,1.5k,100.520000,-150.217500,0.000000,top
R3,6.2k,94.905000,-154.230000,180.000000,top
R4,510,94.910000,-157.890000,180.000000,top
R5,1k,103.295000,-162.740000,-90.000000,top
R6,18k,104.915000,-162.740000,-90.000000,top
R7,47k,106.525000,-162.737500,-90.000000,top
R8,1k,108.135000,-162.740000,90.000000,top
R9,100k,121.950000,-143.440000,90.000000,top
R10,1k,125.460000,-164.190000,180.000000,top
R11,10k,125.460000,-165.810000,0.000000,top
R12,1k,125.470000,-162.580000,0.000000,top
U1,FT232RL,110.490000,-144.170000,90.000000,top
U2,MT3608,104.625000,-159.340000,90.000000,top
U3,PIC16F886-IP,135.300000,-147.200000,0.000000,top
