(kicad_symbol_lib (version 20211014) (generator kicad_symbol_editor)
  (symbol "CIA_(6526,8521)" (pin_names (offset 1.016)) (in_bom yes) (on_board yes)
    (property "Reference" "U" (id 0) (at 0 2.54 0)
      (effects (font (size 1.27 1.27)))
    )
    (property "Value" "CIA_(6526,8521)" (id 1) (at 0 0 0)
      (effects (font (size 1.27 1.27)))
    )
    (property "Footprint" "Package_DIP:DIP-40_W15.24mm" (id 2) (at 0 0 0)
      (effects (font (size 1.27 1.27)) hide)
    )
    (property "Datasheet" "" (id 3) (at 0 0 0)
      (effects (font (size 1.27 1.27)) hide)
    )
    (symbol "CIA_(6526,8521)_1_1"
      (rectangle (start -8.89 -2.54) (end 10.16 -55.88)
        (stroke (width 0) (type default) (color 0 0 0 0))
        (fill (type background))
      )
      (pin input line (at -11.43 -5.08 0) (length 2.54)
        (name "Vss" (effects (font (size 1.27 1.27))))
        (number "1" (effects (font (size 1.27 1.27))))
      )
      (pin input line (at -11.43 -27.94 0) (length 2.54)
        (name "PB0" (effects (font (size 1.27 1.27))))
        (number "10" (effects (font (size 1.27 1.27))))
      )
      (pin input line (at -11.43 -30.48 0) (length 2.54)
        (name "PB1" (effects (font (size 1.27 1.27))))
        (number "11" (effects (font (size 1.27 1.27))))
      )
      (pin input line (at -11.43 -33.02 0) (length 2.54)
        (name "PB2" (effects (font (size 1.27 1.27))))
        (number "12" (effects (font (size 1.27 1.27))))
      )
      (pin input line (at -11.43 -35.56 0) (length 2.54)
        (name "PB3" (effects (font (size 1.27 1.27))))
        (number "13" (effects (font (size 1.27 1.27))))
      )
      (pin input line (at -11.43 -38.1 0) (length 2.54)
        (name "PB4" (effects (font (size 1.27 1.27))))
        (number "14" (effects (font (size 1.27 1.27))))
      )
      (pin input line (at -11.43 -40.64 0) (length 2.54)
        (name "PB5" (effects (font (size 1.27 1.27))))
        (number "15" (effects (font (size 1.27 1.27))))
      )
      (pin input line (at -11.43 -43.18 0) (length 2.54)
        (name "PB6" (effects (font (size 1.27 1.27))))
        (number "16" (effects (font (size 1.27 1.27))))
      )
      (pin input line (at -11.43 -45.72 0) (length 2.54)
        (name "PB7" (effects (font (size 1.27 1.27))))
        (number "17" (effects (font (size 1.27 1.27))))
      )
      (pin input line (at -11.43 -48.26 0) (length 2.54)
        (name "~{PC}" (effects (font (size 1.27 1.27))))
        (number "18" (effects (font (size 1.27 1.27))))
      )
      (pin input line (at -11.43 -50.8 0) (length 2.54)
        (name "TOD" (effects (font (size 1.27 1.27))))
        (number "19" (effects (font (size 1.27 1.27))))
      )
      (pin input line (at -11.43 -7.62 0) (length 2.54)
        (name "PA0" (effects (font (size 1.27 1.27))))
        (number "2" (effects (font (size 1.27 1.27))))
      )
      (pin input line (at -11.43 -53.34 0) (length 2.54)
        (name "Vcc" (effects (font (size 1.27 1.27))))
        (number "20" (effects (font (size 1.27 1.27))))
      )
      (pin input line (at 12.7 -53.34 180) (length 2.54)
        (name "~{IRQ}" (effects (font (size 1.27 1.27))))
        (number "21" (effects (font (size 1.27 1.27))))
      )
      (pin input line (at 12.7 -50.8 180) (length 2.54)
        (name "R/~{W}" (effects (font (size 1.27 1.27))))
        (number "22" (effects (font (size 1.27 1.27))))
      )
      (pin input line (at 12.7 -48.26 180) (length 2.54)
        (name "~{CS}" (effects (font (size 1.27 1.27))))
        (number "23" (effects (font (size 1.27 1.27))))
      )
      (pin input line (at 12.7 -45.72 180) (length 2.54)
        (name "~{FLAC}" (effects (font (size 1.27 1.27))))
        (number "24" (effects (font (size 1.27 1.27))))
      )
      (pin input line (at 12.7 -43.18 180) (length 2.54)
        (name "Ø2" (effects (font (size 1.27 1.27))))
        (number "25" (effects (font (size 1.27 1.27))))
      )
      (pin input line (at 12.7 -40.64 180) (length 2.54)
        (name "DB7" (effects (font (size 1.27 1.27))))
        (number "26" (effects (font (size 1.27 1.27))))
      )
      (pin input line (at 12.7 -38.1 180) (length 2.54)
        (name "DB6" (effects (font (size 1.27 1.27))))
        (number "27" (effects (font (size 1.27 1.27))))
      )
      (pin input line (at 12.7 -35.56 180) (length 2.54)
        (name "DB5" (effects (font (size 1.27 1.27))))
        (number "28" (effects (font (size 1.27 1.27))))
      )
      (pin input line (at 12.7 -33.02 180) (length 2.54)
        (name "DB4" (effects (font (size 1.27 1.27))))
        (number "29" (effects (font (size 1.27 1.27))))
      )
      (pin input line (at -11.43 -10.16 0) (length 2.54)
        (name "PA1" (effects (font (size 1.27 1.27))))
        (number "3" (effects (font (size 1.27 1.27))))
      )
      (pin input line (at 12.7 -30.48 180) (length 2.54)
        (name "DB3" (effects (font (size 1.27 1.27))))
        (number "30" (effects (font (size 1.27 1.27))))
      )
      (pin input line (at 12.7 -27.94 180) (length 2.54)
        (name "DB2" (effects (font (size 1.27 1.27))))
        (number "31" (effects (font (size 1.27 1.27))))
      )
      (pin input line (at 12.7 -25.4 180) (length 2.54)
        (name "DB1" (effects (font (size 1.27 1.27))))
        (number "32" (effects (font (size 1.27 1.27))))
      )
      (pin input line (at 12.7 -22.86 180) (length 2.54)
        (name "DB0" (effects (font (size 1.27 1.27))))
        (number "33" (effects (font (size 1.27 1.27))))
      )
      (pin input line (at 12.7 -20.32 180) (length 2.54)
        (name "RES" (effects (font (size 1.27 1.27))))
        (number "34" (effects (font (size 1.27 1.27))))
      )
      (pin input line (at 12.7 -17.78 180) (length 2.54)
        (name "RS3" (effects (font (size 1.27 1.27))))
        (number "35" (effects (font (size 1.27 1.27))))
      )
      (pin input line (at 12.7 -15.24 180) (length 2.54)
        (name "RS2" (effects (font (size 1.27 1.27))))
        (number "36" (effects (font (size 1.27 1.27))))
      )
      (pin input line (at 12.7 -12.7 180) (length 2.54)
        (name "RS1" (effects (font (size 1.27 1.27))))
        (number "37" (effects (font (size 1.27 1.27))))
      )
      (pin input line (at 12.7 -10.16 180) (length 2.54)
        (name "RS0" (effects (font (size 1.27 1.27))))
        (number "38" (effects (font (size 1.27 1.27))))
      )
      (pin input line (at 12.7 -7.62 180) (length 2.54)
        (name "SP" (effects (font (size 1.27 1.27))))
        (number "39" (effects (font (size 1.27 1.27))))
      )
      (pin input line (at -11.43 -12.7 0) (length 2.54)
        (name "PA2" (effects (font (size 1.27 1.27))))
        (number "4" (effects (font (size 1.27 1.27))))
      )
      (pin input line (at 12.7 -5.08 180) (length 2.54)
        (name "CNT" (effects (font (size 1.27 1.27))))
        (number "40" (effects (font (size 1.27 1.27))))
      )
      (pin input line (at -11.43 -15.24 0) (length 2.54)
        (name "PA3" (effects (font (size 1.27 1.27))))
        (number "5" (effects (font (size 1.27 1.27))))
      )
      (pin input line (at -11.43 -17.78 0) (length 2.54)
        (name "PA4" (effects (font (size 1.27 1.27))))
        (number "6" (effects (font (size 1.27 1.27))))
      )
      (pin input line (at -11.43 -20.32 0) (length 2.54)
        (name "PA5" (effects (font (size 1.27 1.27))))
        (number "7" (effects (font (size 1.27 1.27))))
      )
      (pin input line (at -11.43 -22.86 0) (length 2.54)
        (name "PA6" (effects (font (size 1.27 1.27))))
        (number "8" (effects (font (size 1.27 1.27))))
      )
      (pin input line (at -11.43 -25.4 0) (length 2.54)
        (name "PA7" (effects (font (size 1.27 1.27))))
        (number "9" (effects (font (size 1.27 1.27))))
      )
    )
  )
  (symbol "CPU_(6510,8500)" (pin_names (offset 1.016)) (in_bom yes) (on_board yes)
    (property "Reference" "U" (id 0) (at 0 31.75 0)
      (effects (font (size 1.27 1.27)))
    )
    (property "Value" "CPU_(6510,8500)" (id 1) (at 0 29.21 0)
      (effects (font (size 1.27 1.27)))
    )
    (property "Footprint" "Package_DIP:DIP-40_W15.24mm" (id 2) (at 0 29.21 0)
      (effects (font (size 1.27 1.27)) hide)
    )
    (property "Datasheet" "" (id 3) (at 0 29.21 0)
      (effects (font (size 1.27 1.27)) hide)
    )
    (symbol "CPU_(6510,8500)_1_1"
      (rectangle (start -10.16 26.67) (end 8.89 -26.67)
        (stroke (width 0) (type default) (color 0 0 0 0))
        (fill (type background))
      )
      (pin input line (at -12.7 24.13 0) (length 2.54)
        (name "Ø1" (effects (font (size 1.27 1.27))))
        (number "1" (effects (font (size 1.27 1.27))))
      )
      (pin input line (at -12.7 1.27 0) (length 2.54)
        (name "A3" (effects (font (size 1.27 1.27))))
        (number "10" (effects (font (size 1.27 1.27))))
      )
      (pin input line (at -12.7 -1.27 0) (length 2.54)
        (name "A4" (effects (font (size 1.27 1.27))))
        (number "11" (effects (font (size 1.27 1.27))))
      )
      (pin input line (at -12.7 -3.81 0) (length 2.54)
        (name "A5" (effects (font (size 1.27 1.27))))
        (number "12" (effects (font (size 1.27 1.27))))
      )
      (pin input line (at -12.7 -6.35 0) (length 2.54)
        (name "A6" (effects (font (size 1.27 1.27))))
        (number "13" (effects (font (size 1.27 1.27))))
      )
      (pin input line (at -12.7 -8.89 0) (length 2.54)
        (name "A7" (effects (font (size 1.27 1.27))))
        (number "14" (effects (font (size 1.27 1.27))))
      )
      (pin input line (at -12.7 -11.43 0) (length 2.54)
        (name "A8" (effects (font (size 1.27 1.27))))
        (number "15" (effects (font (size 1.27 1.27))))
      )
      (pin input line (at -12.7 -13.97 0) (length 2.54)
        (name "A9" (effects (font (size 1.27 1.27))))
        (number "16" (effects (font (size 1.27 1.27))))
      )
      (pin input line (at -12.7 -16.51 0) (length 2.54)
        (name "A10" (effects (font (size 1.27 1.27))))
        (number "17" (effects (font (size 1.27 1.27))))
      )
      (pin input line (at -12.7 -19.05 0) (length 2.54)
        (name "A11" (effects (font (size 1.27 1.27))))
        (number "18" (effects (font (size 1.27 1.27))))
      )
      (pin input line (at -12.7 -21.59 0) (length 2.54)
        (name "A12" (effects (font (size 1.27 1.27))))
        (number "19" (effects (font (size 1.27 1.27))))
      )
      (pin input line (at -12.7 21.59 0) (length 2.54)
        (name "RDY" (effects (font (size 1.27 1.27))))
        (number "2" (effects (font (size 1.27 1.27))))
      )
      (pin input line (at -12.7 -24.13 0) (length 2.54)
        (name "A13" (effects (font (size 1.27 1.27))))
        (number "20" (effects (font (size 1.27 1.27))))
      )
      (pin input line (at 11.43 -24.13 180) (length 2.54)
        (name "GND" (effects (font (size 1.27 1.27))))
        (number "21" (effects (font (size 1.27 1.27))))
      )
      (pin input line (at 11.43 -21.59 180) (length 2.54)
        (name "A14" (effects (font (size 1.27 1.27))))
        (number "22" (effects (font (size 1.27 1.27))))
      )
      (pin input line (at 11.43 -19.05 180) (length 2.54)
        (name "A15" (effects (font (size 1.27 1.27))))
        (number "23" (effects (font (size 1.27 1.27))))
      )
      (pin input line (at 11.43 -16.51 180) (length 2.54)
        (name "P5" (effects (font (size 1.27 1.27))))
        (number "24" (effects (font (size 1.27 1.27))))
      )
      (pin input line (at 11.43 -13.97 180) (length 2.54)
        (name "P4" (effects (font (size 1.27 1.27))))
        (number "25" (effects (font (size 1.27 1.27))))
      )
      (pin input line (at 11.43 -11.43 180) (length 2.54)
        (name "P3" (effects (font (size 1.27 1.27))))
        (number "26" (effects (font (size 1.27 1.27))))
      )
      (pin input line (at 11.43 -8.89 180) (length 2.54)
        (name "P2" (effects (font (size 1.27 1.27))))
        (number "27" (effects (font (size 1.27 1.27))))
      )
      (pin input line (at 11.43 -6.35 180) (length 2.54)
        (name "P1" (effects (font (size 1.27 1.27))))
        (number "28" (effects (font (size 1.27 1.27))))
      )
      (pin input line (at 11.43 -3.81 180) (length 2.54)
        (name "P0" (effects (font (size 1.27 1.27))))
        (number "29" (effects (font (size 1.27 1.27))))
      )
      (pin input line (at -12.7 19.05 0) (length 2.54)
        (name "~{IRQ}" (effects (font (size 1.27 1.27))))
        (number "3" (effects (font (size 1.27 1.27))))
      )
      (pin input line (at 11.43 -1.27 180) (length 2.54)
        (name "D7" (effects (font (size 1.27 1.27))))
        (number "30" (effects (font (size 1.27 1.27))))
      )
      (pin input line (at 11.43 1.27 180) (length 2.54)
        (name "D6" (effects (font (size 1.27 1.27))))
        (number "31" (effects (font (size 1.27 1.27))))
      )
      (pin input line (at 11.43 3.81 180) (length 2.54)
        (name "D5" (effects (font (size 1.27 1.27))))
        (number "32" (effects (font (size 1.27 1.27))))
      )
      (pin input line (at 11.43 6.35 180) (length 2.54)
        (name "D4" (effects (font (size 1.27 1.27))))
        (number "33" (effects (font (size 1.27 1.27))))
      )
      (pin input line (at 11.43 8.89 180) (length 2.54)
        (name "D3" (effects (font (size 1.27 1.27))))
        (number "34" (effects (font (size 1.27 1.27))))
      )
      (pin input line (at 11.43 11.43 180) (length 2.54)
        (name "D2" (effects (font (size 1.27 1.27))))
        (number "35" (effects (font (size 1.27 1.27))))
      )
      (pin input line (at 11.43 13.97 180) (length 2.54)
        (name "D1" (effects (font (size 1.27 1.27))))
        (number "36" (effects (font (size 1.27 1.27))))
      )
      (pin input line (at 11.43 16.51 180) (length 2.54)
        (name "D0" (effects (font (size 1.27 1.27))))
        (number "37" (effects (font (size 1.27 1.27))))
      )
      (pin input line (at 11.43 19.05 180) (length 2.54)
        (name "R/~{W}" (effects (font (size 1.27 1.27))))
        (number "38" (effects (font (size 1.27 1.27))))
      )
      (pin input line (at 11.43 21.59 180) (length 2.54)
        (name "Ø2" (effects (font (size 1.27 1.27))))
        (number "39" (effects (font (size 1.27 1.27))))
      )
      (pin input line (at -12.7 16.51 0) (length 2.54)
        (name "~{NMI}" (effects (font (size 1.27 1.27))))
        (number "4" (effects (font (size 1.27 1.27))))
      )
      (pin input line (at 11.43 24.13 180) (length 2.54)
        (name "~{RES}" (effects (font (size 1.27 1.27))))
        (number "40" (effects (font (size 1.27 1.27))))
      )
      (pin input line (at -12.7 13.97 0) (length 2.54)
        (name "AEC" (effects (font (size 1.27 1.27))))
        (number "5" (effects (font (size 1.27 1.27))))
      )
      (pin input line (at -12.7 11.43 0) (length 2.54)
        (name "Vcc" (effects (font (size 1.27 1.27))))
        (number "6" (effects (font (size 1.27 1.27))))
      )
      (pin input line (at -12.7 8.89 0) (length 2.54)
        (name "A0" (effects (font (size 1.27 1.27))))
        (number "7" (effects (font (size 1.27 1.27))))
      )
      (pin input line (at -12.7 6.35 0) (length 2.54)
        (name "A1" (effects (font (size 1.27 1.27))))
        (number "8" (effects (font (size 1.27 1.27))))
      )
      (pin input line (at -12.7 3.81 0) (length 2.54)
        (name "A2" (effects (font (size 1.27 1.27))))
        (number "9" (effects (font (size 1.27 1.27))))
      )
    )
  )
  (symbol "MOS_8701" (in_bom yes) (on_board yes)
    (property "Reference" "U" (id 0) (at 0 2.54 0)
      (effects (font (size 1.27 1.27)))
    )
    (property "Value" "MOS_8701" (id 1) (at 0 0 0)
      (effects (font (size 1.27 1.27)))
    )
    (property "Footprint" "Package_DIP:DIP-16_W7.62mm_Socket" (id 2) (at 0 0 0)
      (effects (font (size 1.27 1.27)) hide)
    )
    (property "Datasheet" "" (id 3) (at 0 0 0)
      (effects (font (size 1.27 1.27)) hide)
    )
    (symbol "MOS_8701_0_1"
      (polyline
        (pts
          (xy -7.62 -2.54)
          (xy 8.89 -2.54)
          (xy 8.89 -25.4)
          (xy -7.62 -25.4)
          (xy -7.62 -2.54)
        )
        (stroke (width 0.1524) (type default) (color 0 0 0 0))
        (fill (type background))
      )
    )
    (symbol "MOS_8701_1_1"
      (pin no_connect line (at -10.16 -5.08 0) (length 2.54)
        (name "N/C" (effects (font (size 1.27 1.27))))
        (number "1" (effects (font (size 1.27 1.27))))
      )
      (pin no_connect line (at 11.43 -20.32 180) (length 2.54)
        (name "N/C" (effects (font (size 1.27 1.27))))
        (number "10" (effects (font (size 1.27 1.27))))
      )
      (pin no_connect line (at 11.43 -17.78 180) (length 2.54)
        (name "N/C" (effects (font (size 1.27 1.27))))
        (number "11" (effects (font (size 1.27 1.27))))
      )
      (pin power_in line (at 11.43 -15.24 180) (length 2.54)
        (name "Vdd" (effects (font (size 1.27 1.27))))
        (number "12" (effects (font (size 1.27 1.27))))
      )
      (pin output line (at 11.43 -12.7 180) (length 2.54)
        (name "XTL_OUT" (effects (font (size 1.27 1.27))))
        (number "13" (effects (font (size 1.27 1.27))))
      )
      (pin input line (at 11.43 -10.16 180) (length 2.54)
        (name "XTL_IN" (effects (font (size 1.27 1.27))))
        (number "14" (effects (font (size 1.27 1.27))))
      )
      (pin power_in line (at 11.43 -7.62 180) (length 2.54)
        (name "Vdd" (effects (font (size 1.27 1.27))))
        (number "15" (effects (font (size 1.27 1.27))))
      )
      (pin no_connect line (at 11.43 -5.08 180) (length 2.54)
        (name "N/C" (effects (font (size 1.27 1.27))))
        (number "16" (effects (font (size 1.27 1.27))))
      )
      (pin power_in line (at -10.16 -7.62 0) (length 2.54)
        (name "Vss" (effects (font (size 1.27 1.27))))
        (number "2" (effects (font (size 1.27 1.27))))
      )
      (pin no_connect line (at -10.16 -10.16 0) (length 2.54)
        (name "N/C" (effects (font (size 1.27 1.27))))
        (number "3" (effects (font (size 1.27 1.27))))
      )
      (pin no_connect line (at -10.16 -12.7 0) (length 2.54)
        (name "N/C" (effects (font (size 1.27 1.27))))
        (number "4" (effects (font (size 1.27 1.27))))
      )
      (pin input line (at -10.16 -15.24 0) (length 2.54)
        (name "RESET" (effects (font (size 1.27 1.27))))
        (number "5" (effects (font (size 1.27 1.27))))
      )
      (pin output line (at -10.16 -17.78 0) (length 2.54)
        (name "Ø_DOT" (effects (font (size 1.27 1.27))))
        (number "6" (effects (font (size 1.27 1.27))))
      )
      (pin input line (at -10.16 -20.32 0) (length 2.54)
        (name "~{PAL}" (effects (font (size 1.27 1.27))))
        (number "7" (effects (font (size 1.27 1.27))))
      )
      (pin output line (at -10.16 -22.86 0) (length 2.54)
        (name "Ø_COLOR" (effects (font (size 1.27 1.27))))
        (number "8" (effects (font (size 1.27 1.27))))
      )
      (pin power_in line (at 11.43 -22.86 180) (length 2.54)
        (name "Vss" (effects (font (size 1.27 1.27))))
        (number "9" (effects (font (size 1.27 1.27))))
      )
    )
  )
  (symbol "PLA_(251715-01)" (pin_names (offset 1.016)) (in_bom yes) (on_board yes)
    (property "Reference" "U" (id 0) (at 0 45.72 0)
      (effects (font (size 1.27 1.27)))
    )
    (property "Value" "PLA_(251715-01)" (id 1) (at 0 43.18 0)
      (effects (font (size 1.27 1.27)))
    )
    (property "Footprint" "Package_DIP:DIP-64_W22.86mm" (id 2) (at 1.27 48.26 0)
      (effects (font (size 1.27 1.27)) hide)
    )
    (property "Datasheet" "" (id 3) (at 0 43.18 0)
      (effects (font (size 1.27 1.27)) hide)
    )
    (symbol "PLA_(251715-01)_0_1"
      (rectangle (start -10.16 40.64) (end 10.16 -43.18)
        (stroke (width 0) (type default) (color 0 0 0 0))
        (fill (type background))
      )
    )
    (symbol "PLA_(251715-01)_1_1"
      (pin input line (at -12.7 38.1 0) (length 2.54)
        (name "A13" (effects (font (size 1.27 1.27))))
        (number "1" (effects (font (size 1.27 1.27))))
      )
      (pin input line (at -12.7 15.24 0) (length 2.54)
        (name "~{VA14}" (effects (font (size 1.27 1.27))))
        (number "10" (effects (font (size 1.27 1.27))))
      )
      (pin input line (at -12.7 12.7 0) (length 2.54)
        (name "~{VA15}" (effects (font (size 1.27 1.27))))
        (number "11" (effects (font (size 1.27 1.27))))
      )
      (pin input line (at -12.7 10.16 0) (length 2.54)
        (name "~{CIA2}" (effects (font (size 1.27 1.27))))
        (number "12" (effects (font (size 1.27 1.27))))
      )
      (pin input line (at -12.7 7.62 0) (length 2.54)
        (name "~{CHAROM}" (effects (font (size 1.27 1.27))))
        (number "13" (effects (font (size 1.27 1.27))))
      )
      (pin input line (at -12.7 5.08 0) (length 2.54)
        (name "~{BASIC}" (effects (font (size 1.27 1.27))))
        (number "14" (effects (font (size 1.27 1.27))))
      )
      (pin input line (at -12.7 2.54 0) (length 2.54)
        (name "~{KERNAL}" (effects (font (size 1.27 1.27))))
        (number "15" (effects (font (size 1.27 1.27))))
      )
      (pin input line (at -12.7 0 0) (length 2.54)
        (name "GND" (effects (font (size 1.27 1.27))))
        (number "16" (effects (font (size 1.27 1.27))))
      )
      (pin input line (at -12.7 -2.54 0) (length 2.54)
        (name "~{COLRAM}" (effects (font (size 1.27 1.27))))
        (number "17" (effects (font (size 1.27 1.27))))
      )
      (pin input line (at -12.7 -5.08 0) (length 2.54)
        (name "~{CAS0}" (effects (font (size 1.27 1.27))))
        (number "18" (effects (font (size 1.27 1.27))))
      )
      (pin input line (at -12.7 -7.62 0) (length 2.54)
        (name "~{CAS1}" (effects (font (size 1.27 1.27))))
        (number "19" (effects (font (size 1.27 1.27))))
      )
      (pin input line (at -12.7 35.56 0) (length 2.54)
        (name "A14" (effects (font (size 1.27 1.27))))
        (number "2" (effects (font (size 1.27 1.27))))
      )
      (pin input line (at -12.7 -10.16 0) (length 2.54)
        (name "~{CAS2}" (effects (font (size 1.27 1.27))))
        (number "20" (effects (font (size 1.27 1.27))))
      )
      (pin input line (at -12.7 -12.7 0) (length 2.54)
        (name "~{CAS3}" (effects (font (size 1.27 1.27))))
        (number "21" (effects (font (size 1.27 1.27))))
      )
      (pin input line (at -12.7 -15.24 0) (length 2.54)
        (name "~{CASRAM}" (effects (font (size 1.27 1.27))))
        (number "22" (effects (font (size 1.27 1.27))))
      )
      (pin input line (at -12.7 -17.78 0) (length 2.54)
        (name "RAM_R/~{W}" (effects (font (size 1.27 1.27))))
        (number "23" (effects (font (size 1.27 1.27))))
      )
      (pin input line (at -12.7 -20.32 0) (length 2.54)
        (name "MA6" (effects (font (size 1.27 1.27))))
        (number "24" (effects (font (size 1.27 1.27))))
      )
      (pin input line (at -12.7 -22.86 0) (length 2.54)
        (name "MA3" (effects (font (size 1.27 1.27))))
        (number "25" (effects (font (size 1.27 1.27))))
      )
      (pin input line (at -12.7 -25.4 0) (length 2.54)
        (name "MA0" (effects (font (size 1.27 1.27))))
        (number "26" (effects (font (size 1.27 1.27))))
      )
      (pin input line (at -12.7 -27.94 0) (length 2.54)
        (name "MA2" (effects (font (size 1.27 1.27))))
        (number "27" (effects (font (size 1.27 1.27))))
      )
      (pin input line (at -12.7 -30.48 0) (length 2.54)
        (name "MA4" (effects (font (size 1.27 1.27))))
        (number "28" (effects (font (size 1.27 1.27))))
      )
      (pin input line (at -12.7 -33.02 0) (length 2.54)
        (name "MA1" (effects (font (size 1.27 1.27))))
        (number "29" (effects (font (size 1.27 1.27))))
      )
      (pin input line (at -12.7 33.02 0) (length 2.54)
        (name "A15" (effects (font (size 1.27 1.27))))
        (number "3" (effects (font (size 1.27 1.27))))
      )
      (pin input line (at -12.7 -35.56 0) (length 2.54)
        (name "MA5" (effects (font (size 1.27 1.27))))
        (number "30" (effects (font (size 1.27 1.27))))
      )
      (pin input line (at -12.7 -38.1 0) (length 2.54)
        (name "MA7" (effects (font (size 1.27 1.27))))
        (number "31" (effects (font (size 1.27 1.27))))
      )
      (pin input line (at -12.7 -40.64 0) (length 2.54)
        (name "NC" (effects (font (size 1.27 1.27))))
        (number "32" (effects (font (size 1.27 1.27))))
      )
      (pin input line (at 12.7 -40.64 180) (length 2.54)
        (name "GND" (effects (font (size 1.27 1.27))))
        (number "33" (effects (font (size 1.27 1.27))))
      )
      (pin input line (at 12.7 -38.1 180) (length 2.54)
        (name "~{CIA1}" (effects (font (size 1.27 1.27))))
        (number "34" (effects (font (size 1.27 1.27))))
      )
      (pin input line (at 12.7 -35.56 180) (length 2.54)
        (name "~{CAS}" (effects (font (size 1.27 1.27))))
        (number "35" (effects (font (size 1.27 1.27))))
      )
      (pin input line (at 12.7 -33.02 180) (length 2.54)
        (name "~{RAS}" (effects (font (size 1.27 1.27))))
        (number "36" (effects (font (size 1.27 1.27))))
      )
      (pin input line (at 12.7 -30.48 180) (length 2.54)
        (name "Ø0" (effects (font (size 1.27 1.27))))
        (number "37" (effects (font (size 1.27 1.27))))
      )
      (pin input line (at 12.7 -27.94 180) (length 2.54)
        (name "AEC" (effects (font (size 1.27 1.27))))
        (number "38" (effects (font (size 1.27 1.27))))
      )
      (pin input line (at 12.7 -25.4 180) (length 2.54)
        (name "BA" (effects (font (size 1.27 1.27))))
        (number "39" (effects (font (size 1.27 1.27))))
      )
      (pin input line (at -12.7 30.48 0) (length 2.54)
        (name "R/~{W}" (effects (font (size 1.27 1.27))))
        (number "4" (effects (font (size 1.27 1.27))))
      )
      (pin input line (at 12.7 -22.86 180) (length 2.54)
        (name "~{VIC}" (effects (font (size 1.27 1.27))))
        (number "40" (effects (font (size 1.27 1.27))))
      )
      (pin input line (at 12.7 -20.32 180) (length 2.54)
        (name "VA6" (effects (font (size 1.27 1.27))))
        (number "41" (effects (font (size 1.27 1.27))))
      )
      (pin input line (at 12.7 -17.78 180) (length 2.54)
        (name "VA7" (effects (font (size 1.27 1.27))))
        (number "42" (effects (font (size 1.27 1.27))))
      )
      (pin input line (at 12.7 -15.24 180) (length 2.54)
        (name "SID" (effects (font (size 1.27 1.27))))
        (number "43" (effects (font (size 1.27 1.27))))
      )
      (pin input line (at 12.7 -12.7 180) (length 2.54)
        (name "~{ROML}" (effects (font (size 1.27 1.27))))
        (number "44" (effects (font (size 1.27 1.27))))
      )
      (pin input line (at 12.7 -10.16 180) (length 2.54)
        (name "~{I/O2}" (effects (font (size 1.27 1.27))))
        (number "45" (effects (font (size 1.27 1.27))))
      )
      (pin input line (at 12.7 -7.62 180) (length 2.54)
        (name "~{EXROM}" (effects (font (size 1.27 1.27))))
        (number "46" (effects (font (size 1.27 1.27))))
      )
      (pin input line (at 12.7 -5.08 180) (length 2.54)
        (name "~{GAME}" (effects (font (size 1.27 1.27))))
        (number "47" (effects (font (size 1.27 1.27))))
      )
      (pin input line (at 12.7 -2.54 180) (length 2.54)
        (name "GND" (effects (font (size 1.27 1.27))))
        (number "48" (effects (font (size 1.27 1.27))))
      )
      (pin input line (at 12.7 0 180) (length 2.54)
        (name "~{I/O1}" (effects (font (size 1.27 1.27))))
        (number "49" (effects (font (size 1.27 1.27))))
      )
      (pin input line (at -12.7 27.94 0) (length 2.54)
        (name "~{LORAM}" (effects (font (size 1.27 1.27))))
        (number "5" (effects (font (size 1.27 1.27))))
      )
      (pin input line (at 12.7 2.54 180) (length 2.54)
        (name "~{ROMH}" (effects (font (size 1.27 1.27))))
        (number "50" (effects (font (size 1.27 1.27))))
      )
      (pin input line (at 12.7 5.08 180) (length 2.54)
        (name "A0" (effects (font (size 1.27 1.27))))
        (number "51" (effects (font (size 1.27 1.27))))
      )
      (pin input line (at 12.7 7.62 180) (length 2.54)
        (name "A1" (effects (font (size 1.27 1.27))))
        (number "52" (effects (font (size 1.27 1.27))))
      )
      (pin input line (at 12.7 10.16 180) (length 2.54)
        (name "A2" (effects (font (size 1.27 1.27))))
        (number "53" (effects (font (size 1.27 1.27))))
      )
      (pin input line (at 12.7 12.7 180) (length 2.54)
        (name "A3" (effects (font (size 1.27 1.27))))
        (number "54" (effects (font (size 1.27 1.27))))
      )
      (pin input line (at 12.7 15.24 180) (length 2.54)
        (name "A4" (effects (font (size 1.27 1.27))))
        (number "55" (effects (font (size 1.27 1.27))))
      )
      (pin input line (at 12.7 17.78 180) (length 2.54)
        (name "A5" (effects (font (size 1.27 1.27))))
        (number "56" (effects (font (size 1.27 1.27))))
      )
      (pin input line (at 12.7 20.32 180) (length 2.54)
        (name "A6" (effects (font (size 1.27 1.27))))
        (number "57" (effects (font (size 1.27 1.27))))
      )
      (pin input line (at 12.7 22.86 180) (length 2.54)
        (name "A7" (effects (font (size 1.27 1.27))))
        (number "58" (effects (font (size 1.27 1.27))))
      )
      (pin input line (at 12.7 25.4 180) (length 2.54)
        (name "A8" (effects (font (size 1.27 1.27))))
        (number "59" (effects (font (size 1.27 1.27))))
      )
      (pin input line (at -12.7 25.4 0) (length 2.54)
        (name "~{HIRAM}" (effects (font (size 1.27 1.27))))
        (number "6" (effects (font (size 1.27 1.27))))
      )
      (pin input line (at 12.7 27.94 180) (length 2.54)
        (name "A9" (effects (font (size 1.27 1.27))))
        (number "60" (effects (font (size 1.27 1.27))))
      )
      (pin input line (at 12.7 30.48 180) (length 2.54)
        (name "A10" (effects (font (size 1.27 1.27))))
        (number "61" (effects (font (size 1.27 1.27))))
      )
      (pin input line (at 12.7 33.02 180) (length 2.54)
        (name "A11" (effects (font (size 1.27 1.27))))
        (number "62" (effects (font (size 1.27 1.27))))
      )
      (pin input line (at 12.7 35.56 180) (length 2.54)
        (name "A12" (effects (font (size 1.27 1.27))))
        (number "63" (effects (font (size 1.27 1.27))))
      )
      (pin input line (at 12.7 38.1 180) (length 2.54)
        (name "Vdd" (effects (font (size 1.27 1.27))))
        (number "64" (effects (font (size 1.27 1.27))))
      )
      (pin input line (at -12.7 22.86 0) (length 2.54)
        (name "~{CHAREN}" (effects (font (size 1.27 1.27))))
        (number "7" (effects (font (size 1.27 1.27))))
      )
      (pin input line (at -12.7 20.32 0) (length 2.54)
        (name "NMI" (effects (font (size 1.27 1.27))))
        (number "8" (effects (font (size 1.27 1.27))))
      )
      (pin input line (at -12.7 17.78 0) (length 2.54)
        (name "RESTORE" (effects (font (size 1.27 1.27))))
        (number "9" (effects (font (size 1.27 1.27))))
      )
    )
  )
  (symbol "PLA_(906114-01)" (pin_names (offset 1.016)) (in_bom yes) (on_board yes)
    (property "Reference" "U" (id 0) (at 0 24.13 0)
      (effects (font (size 1.27 1.27)))
    )
    (property "Value" "PLA_(906114-01)" (id 1) (at 0 21.59 0)
      (effects (font (size 1.27 1.27)))
    )
    (property "Footprint" "" (id 2) (at 0 21.59 0)
      (effects (font (size 1.27 1.27)) hide)
    )
    (property "Datasheet" "" (id 3) (at 0 21.59 0)
      (effects (font (size 1.27 1.27)) hide)
    )
    (symbol "PLA_(906114-01)_1_1"
      (rectangle (start -10.16 19.05) (end 10.16 -19.05)
        (stroke (width 0) (type default) (color 0 0 0 0))
        (fill (type background))
      )
      (pin input line (at -12.7 16.51 0) (length 2.54)
        (name "PE+" (effects (font (size 1.27 1.27))))
        (number "1" (effects (font (size 1.27 1.27))))
      )
      (pin input line (at -12.7 -6.35 0) (length 2.54)
        (name "A1" (effects (font (size 1.27 1.27))))
        (number "10" (effects (font (size 1.27 1.27))))
      )
      (pin input line (at -12.7 -8.89 0) (length 2.54)
        (name "A2" (effects (font (size 1.27 1.27))))
        (number "11" (effects (font (size 1.27 1.27))))
      )
      (pin input line (at -12.7 -11.43 0) (length 2.54)
        (name "A3" (effects (font (size 1.27 1.27))))
        (number "12" (effects (font (size 1.27 1.27))))
      )
      (pin input line (at -12.7 -13.97 0) (length 2.54)
        (name "A4" (effects (font (size 1.27 1.27))))
        (number "13" (effects (font (size 1.27 1.27))))
      )
      (pin input line (at -12.7 -16.51 0) (length 2.54)
        (name "GND" (effects (font (size 1.27 1.27))))
        (number "14" (effects (font (size 1.27 1.27))))
      )
      (pin input line (at 12.7 -16.51 180) (length 2.54)
        (name "F3" (effects (font (size 1.27 1.27))))
        (number "15" (effects (font (size 1.27 1.27))))
      )
      (pin input line (at 12.7 -13.97 180) (length 2.54)
        (name "F2" (effects (font (size 1.27 1.27))))
        (number "16" (effects (font (size 1.27 1.27))))
      )
      (pin input line (at 12.7 -11.43 180) (length 2.54)
        (name "F1" (effects (font (size 1.27 1.27))))
        (number "17" (effects (font (size 1.27 1.27))))
      )
      (pin input line (at 12.7 -8.89 180) (length 2.54)
        (name "F0" (effects (font (size 1.27 1.27))))
        (number "18" (effects (font (size 1.27 1.27))))
      )
      (pin input line (at 12.7 -6.35 180) (length 2.54)
        (name "CE" (effects (font (size 1.27 1.27))))
        (number "19" (effects (font (size 1.27 1.27))))
      )
      (pin input line (at -12.7 13.97 0) (length 2.54)
        (name "I7" (effects (font (size 1.27 1.27))))
        (number "2" (effects (font (size 1.27 1.27))))
      )
      (pin input line (at 12.7 -3.81 180) (length 2.54)
        (name "I15" (effects (font (size 1.27 1.27))))
        (number "20" (effects (font (size 1.27 1.27))))
      )
      (pin input line (at 12.7 -1.27 180) (length 2.54)
        (name "I14" (effects (font (size 1.27 1.27))))
        (number "21" (effects (font (size 1.27 1.27))))
      )
      (pin input line (at 12.7 1.27 180) (length 2.54)
        (name "I13" (effects (font (size 1.27 1.27))))
        (number "22" (effects (font (size 1.27 1.27))))
      )
      (pin input line (at 12.7 3.81 180) (length 2.54)
        (name "I12" (effects (font (size 1.27 1.27))))
        (number "23" (effects (font (size 1.27 1.27))))
      )
      (pin input line (at 12.7 6.35 180) (length 2.54)
        (name "I11" (effects (font (size 1.27 1.27))))
        (number "24" (effects (font (size 1.27 1.27))))
      )
      (pin input line (at 12.7 8.89 180) (length 2.54)
        (name "I10" (effects (font (size 1.27 1.27))))
        (number "25" (effects (font (size 1.27 1.27))))
      )
      (pin input line (at 12.7 11.43 180) (length 2.54)
        (name "I9" (effects (font (size 1.27 1.27))))
        (number "26" (effects (font (size 1.27 1.27))))
      )
      (pin input line (at 12.7 13.97 180) (length 2.54)
        (name "I8" (effects (font (size 1.27 1.27))))
        (number "27" (effects (font (size 1.27 1.27))))
      )
      (pin input line (at 12.7 16.51 180) (length 2.54)
        (name "Vcc" (effects (font (size 1.27 1.27))))
        (number "28" (effects (font (size 1.27 1.27))))
      )
      (pin input line (at -12.7 11.43 0) (length 2.54)
        (name "I6" (effects (font (size 1.27 1.27))))
        (number "3" (effects (font (size 1.27 1.27))))
      )
      (pin input line (at -12.7 8.89 0) (length 2.54)
        (name "I5" (effects (font (size 1.27 1.27))))
        (number "4" (effects (font (size 1.27 1.27))))
      )
      (pin input line (at -12.7 6.35 0) (length 2.54)
        (name "I4" (effects (font (size 1.27 1.27))))
        (number "5" (effects (font (size 1.27 1.27))))
      )
      (pin input line (at -12.7 3.81 0) (length 2.54)
        (name "I3" (effects (font (size 1.27 1.27))))
        (number "6" (effects (font (size 1.27 1.27))))
      )
      (pin input line (at -12.7 1.27 0) (length 2.54)
        (name "I2" (effects (font (size 1.27 1.27))))
        (number "7" (effects (font (size 1.27 1.27))))
      )
      (pin input line (at -12.7 -1.27 0) (length 2.54)
        (name "I1" (effects (font (size 1.27 1.27))))
        (number "8" (effects (font (size 1.27 1.27))))
      )
      (pin input line (at -12.7 -3.81 0) (length 2.54)
        (name "I0" (effects (font (size 1.27 1.27))))
        (number "9" (effects (font (size 1.27 1.27))))
      )
    )
  )
  (symbol "SID_(6581,8580)" (pin_names (offset 1.016)) (in_bom yes) (on_board yes)
    (property "Reference" "U" (id 0) (at 0 24.13 0)
      (effects (font (size 1.27 1.27)))
    )
    (property "Value" "SID_(6581,8580)" (id 1) (at 0 21.59 0)
      (effects (font (size 1.27 1.27)))
    )
    (property "Footprint" "Package_DIP:DIP-28_W15.24mm" (id 2) (at -2.54 21.59 0)
      (effects (font (size 1.27 1.27)) hide)
    )
    (property "Datasheet" "" (id 3) (at -2.54 21.59 0)
      (effects (font (size 1.27 1.27)) hide)
    )
    (symbol "SID_(6581,8580)_0_1"
      (rectangle (start -10.16 19.05) (end 10.16 -19.05)
        (stroke (width 0) (type default) (color 0 0 0 0))
        (fill (type background))
      )
    )
    (symbol "SID_(6581,8580)_1_1"
      (pin input line (at -12.7 16.51 0) (length 2.54)
        (name "CAP1A" (effects (font (size 1.27 1.27))))
        (number "1" (effects (font (size 1.27 1.27))))
      )
      (pin input line (at -12.7 -6.35 0) (length 2.54)
        (name "A1" (effects (font (size 1.27 1.27))))
        (number "10" (effects (font (size 1.27 1.27))))
      )
      (pin input line (at -12.7 -8.89 0) (length 2.54)
        (name "A2" (effects (font (size 1.27 1.27))))
        (number "11" (effects (font (size 1.27 1.27))))
      )
      (pin input line (at -12.7 -11.43 0) (length 2.54)
        (name "A3" (effects (font (size 1.27 1.27))))
        (number "12" (effects (font (size 1.27 1.27))))
      )
      (pin input line (at -12.7 -13.97 0) (length 2.54)
        (name "A4" (effects (font (size 1.27 1.27))))
        (number "13" (effects (font (size 1.27 1.27))))
      )
      (pin input line (at -12.7 -16.51 0) (length 2.54)
        (name "GND" (effects (font (size 1.27 1.27))))
        (number "14" (effects (font (size 1.27 1.27))))
      )
      (pin input line (at 12.7 -16.51 180) (length 2.54)
        (name "D0" (effects (font (size 1.27 1.27))))
        (number "15" (effects (font (size 1.27 1.27))))
      )
      (pin input line (at 12.7 -13.97 180) (length 2.54)
        (name "D1" (effects (font (size 1.27 1.27))))
        (number "16" (effects (font (size 1.27 1.27))))
      )
      (pin input line (at 12.7 -11.43 180) (length 2.54)
        (name "D2" (effects (font (size 1.27 1.27))))
        (number "17" (effects (font (size 1.27 1.27))))
      )
      (pin input line (at 12.7 -8.89 180) (length 2.54)
        (name "D3" (effects (font (size 1.27 1.27))))
        (number "18" (effects (font (size 1.27 1.27))))
      )
      (pin input line (at 12.7 -6.35 180) (length 2.54)
        (name "D4" (effects (font (size 1.27 1.27))))
        (number "19" (effects (font (size 1.27 1.27))))
      )
      (pin input line (at -12.7 13.97 0) (length 2.54)
        (name "CAP1B" (effects (font (size 1.27 1.27))))
        (number "2" (effects (font (size 1.27 1.27))))
      )
      (pin input line (at 12.7 -3.81 180) (length 2.54)
        (name "D5" (effects (font (size 1.27 1.27))))
        (number "20" (effects (font (size 1.27 1.27))))
      )
      (pin input line (at 12.7 -1.27 180) (length 2.54)
        (name "D6" (effects (font (size 1.27 1.27))))
        (number "21" (effects (font (size 1.27 1.27))))
      )
      (pin input line (at 12.7 1.27 180) (length 2.54)
        (name "D7" (effects (font (size 1.27 1.27))))
        (number "22" (effects (font (size 1.27 1.27))))
      )
      (pin input line (at 12.7 3.81 180) (length 2.54)
        (name "POT_Y" (effects (font (size 1.27 1.27))))
        (number "23" (effects (font (size 1.27 1.27))))
      )
      (pin input line (at 12.7 6.35 180) (length 2.54)
        (name "POT_X" (effects (font (size 1.27 1.27))))
        (number "24" (effects (font (size 1.27 1.27))))
      )
      (pin input line (at 12.7 8.89 180) (length 2.54)
        (name "Vcc" (effects (font (size 1.27 1.27))))
        (number "25" (effects (font (size 1.27 1.27))))
      )
      (pin input line (at 12.7 11.43 180) (length 2.54)
        (name "EXT_IN" (effects (font (size 1.27 1.27))))
        (number "26" (effects (font (size 1.27 1.27))))
      )
      (pin input line (at 12.7 13.97 180) (length 2.54)
        (name "AUDIO_OUT" (effects (font (size 1.27 1.27))))
        (number "27" (effects (font (size 1.27 1.27))))
      )
      (pin input line (at 12.7 16.51 180) (length 2.54)
        (name "Vdd" (effects (font (size 1.27 1.27))))
        (number "28" (effects (font (size 1.27 1.27))))
      )
      (pin input line (at -12.7 11.43 0) (length 2.54)
        (name "CAP2A" (effects (font (size 1.27 1.27))))
        (number "3" (effects (font (size 1.27 1.27))))
      )
      (pin input line (at -12.7 8.89 0) (length 2.54)
        (name "CAP2B" (effects (font (size 1.27 1.27))))
        (number "4" (effects (font (size 1.27 1.27))))
      )
      (pin input line (at -12.7 6.35 0) (length 2.54)
        (name "~{RES}" (effects (font (size 1.27 1.27))))
        (number "5" (effects (font (size 1.27 1.27))))
      )
      (pin input line (at -12.7 3.81 0) (length 2.54)
        (name "Ø2" (effects (font (size 1.27 1.27))))
        (number "6" (effects (font (size 1.27 1.27))))
      )
      (pin input line (at -12.7 1.27 0) (length 2.54)
        (name "R/~{W}" (effects (font (size 1.27 1.27))))
        (number "7" (effects (font (size 1.27 1.27))))
      )
      (pin input line (at -12.7 -1.27 0) (length 2.54)
        (name "~{CS}" (effects (font (size 1.27 1.27))))
        (number "8" (effects (font (size 1.27 1.27))))
      )
      (pin input line (at -12.7 -3.81 0) (length 2.54)
        (name "A0" (effects (font (size 1.27 1.27))))
        (number "9" (effects (font (size 1.27 1.27))))
      )
    )
  )
  (symbol "VIC-II_(6567,8562,8564,6569,8565,8566)" (pin_names (offset 1.016)) (in_bom yes) (on_board yes)
    (property "Reference" "U" (id 0) (at 0 30.48 0)
      (effects (font (size 1.27 1.27)))
    )
    (property "Value" "VIC-II_(6567,8562,8564,6569,8565,8566)" (id 1) (at 0 27.94 0)
      (effects (font (size 1.27 1.27)))
    )
    (property "Footprint" "Package_DIP:DIP-40_W15.24mm" (id 2) (at -10.16 26.67 0)
      (effects (font (size 1.27 1.27)) hide)
    )
    (property "Datasheet" "" (id 3) (at -10.16 26.67 0)
      (effects (font (size 1.27 1.27)) hide)
    )
    (symbol "VIC-II_(6567,8562,8564,6569,8565,8566)_0_1"
      (rectangle (start -10.16 25.4) (end 8.89 -27.94)
        (stroke (width 0) (type default) (color 0 0 0 0))
        (fill (type background))
      )
    )
    (symbol "VIC-II_(6567,8562,8564,6569,8565,8566)_1_1"
      (pin input line (at -12.7 22.86 0) (length 2.54)
        (name "DB6" (effects (font (size 1.27 1.27))))
        (number "1" (effects (font (size 1.27 1.27))))
      )
      (pin input line (at -12.7 0 0) (length 2.54)
        (name "~{CS}" (effects (font (size 1.27 1.27))))
        (number "10" (effects (font (size 1.27 1.27))))
      )
      (pin input line (at -12.7 -2.54 0) (length 2.54)
        (name "R/~{W}" (effects (font (size 1.27 1.27))))
        (number "11" (effects (font (size 1.27 1.27))))
      )
      (pin input line (at -12.7 -5.08 0) (length 2.54)
        (name "BA" (effects (font (size 1.27 1.27))))
        (number "12" (effects (font (size 1.27 1.27))))
      )
      (pin input line (at -12.7 -7.62 0) (length 2.54)
        (name "Vdd" (effects (font (size 1.27 1.27))))
        (number "13" (effects (font (size 1.27 1.27))))
      )
      (pin input line (at -12.7 -10.16 0) (length 2.54)
        (name "Color" (effects (font (size 1.27 1.27))))
        (number "14" (effects (font (size 1.27 1.27))))
      )
      (pin input line (at -12.7 -12.7 0) (length 2.54)
        (name "S/LUM" (effects (font (size 1.27 1.27))))
        (number "15" (effects (font (size 1.27 1.27))))
      )
      (pin input line (at -12.7 -15.24 0) (length 2.54)
        (name "AEC" (effects (font (size 1.27 1.27))))
        (number "16" (effects (font (size 1.27 1.27))))
      )
      (pin input line (at -12.7 -17.78 0) (length 2.54)
        (name "Ø0" (effects (font (size 1.27 1.27))))
        (number "17" (effects (font (size 1.27 1.27))))
      )
      (pin input line (at -12.7 -20.32 0) (length 2.54)
        (name "~{RAS}" (effects (font (size 1.27 1.27))))
        (number "18" (effects (font (size 1.27 1.27))))
      )
      (pin input line (at -12.7 -22.86 0) (length 2.54)
        (name "~{CAS}" (effects (font (size 1.27 1.27))))
        (number "19" (effects (font (size 1.27 1.27))))
      )
      (pin input line (at -12.7 20.32 0) (length 2.54)
        (name "DB5" (effects (font (size 1.27 1.27))))
        (number "2" (effects (font (size 1.27 1.27))))
      )
      (pin input line (at -12.7 -25.4 0) (length 2.54)
        (name "GND" (effects (font (size 1.27 1.27))))
        (number "20" (effects (font (size 1.27 1.27))))
      )
      (pin input line (at 11.43 -25.4 180) (length 2.54)
        (name "PHCL" (effects (font (size 1.27 1.27))))
        (number "21" (effects (font (size 1.27 1.27))))
      )
      (pin input line (at 11.43 -22.86 180) (length 2.54)
        (name "PHIN" (effects (font (size 1.27 1.27))))
        (number "22" (effects (font (size 1.27 1.27))))
      )
      (pin input line (at 11.43 -20.32 180) (length 2.54)
        (name "A11" (effects (font (size 1.27 1.27))))
        (number "23" (effects (font (size 1.27 1.27))))
      )
      (pin input line (at 11.43 -17.78 180) (length 2.54)
        (name "A0(A8)" (effects (font (size 1.27 1.27))))
        (number "24" (effects (font (size 1.27 1.27))))
      )
      (pin input line (at 11.43 -15.24 180) (length 2.54)
        (name "A1(A9)" (effects (font (size 1.27 1.27))))
        (number "25" (effects (font (size 1.27 1.27))))
      )
      (pin input line (at 11.43 -12.7 180) (length 2.54)
        (name "A2(A10)" (effects (font (size 1.27 1.27))))
        (number "26" (effects (font (size 1.27 1.27))))
      )
      (pin input line (at 11.43 -10.16 180) (length 2.54)
        (name "A3(A11)" (effects (font (size 1.27 1.27))))
        (number "27" (effects (font (size 1.27 1.27))))
      )
      (pin input line (at 11.43 -7.62 180) (length 2.54)
        (name "A4(A12)" (effects (font (size 1.27 1.27))))
        (number "28" (effects (font (size 1.27 1.27))))
      )
      (pin input line (at 11.43 -5.08 180) (length 2.54)
        (name "A5(A13)" (effects (font (size 1.27 1.27))))
        (number "29" (effects (font (size 1.27 1.27))))
      )
      (pin input line (at -12.7 17.78 0) (length 2.54)
        (name "DB4" (effects (font (size 1.27 1.27))))
        (number "3" (effects (font (size 1.27 1.27))))
      )
      (pin input line (at 11.43 -2.54 180) (length 2.54)
        (name "A6(\"1\")" (effects (font (size 1.27 1.27))))
        (number "30" (effects (font (size 1.27 1.27))))
      )
      (pin input line (at 11.43 0 180) (length 2.54)
        (name "A7" (effects (font (size 1.27 1.27))))
        (number "31" (effects (font (size 1.27 1.27))))
      )
      (pin input line (at 11.43 2.54 180) (length 2.54)
        (name "A8" (effects (font (size 1.27 1.27))))
        (number "32" (effects (font (size 1.27 1.27))))
      )
      (pin input line (at 11.43 5.08 180) (length 2.54)
        (name "A9" (effects (font (size 1.27 1.27))))
        (number "33" (effects (font (size 1.27 1.27))))
      )
      (pin input line (at 11.43 7.62 180) (length 2.54)
        (name "A10" (effects (font (size 1.27 1.27))))
        (number "34" (effects (font (size 1.27 1.27))))
      )
      (pin input line (at 11.43 10.16 180) (length 2.54)
        (name "DB11" (effects (font (size 1.27 1.27))))
        (number "35" (effects (font (size 1.27 1.27))))
      )
      (pin input line (at 11.43 12.7 180) (length 2.54)
        (name "DB10" (effects (font (size 1.27 1.27))))
        (number "36" (effects (font (size 1.27 1.27))))
      )
      (pin input line (at 11.43 15.24 180) (length 2.54)
        (name "DB9" (effects (font (size 1.27 1.27))))
        (number "37" (effects (font (size 1.27 1.27))))
      )
      (pin input line (at 11.43 17.78 180) (length 2.54)
        (name "DB8" (effects (font (size 1.27 1.27))))
        (number "38" (effects (font (size 1.27 1.27))))
      )
      (pin input line (at 11.43 20.32 180) (length 2.54)
        (name "DB7" (effects (font (size 1.27 1.27))))
        (number "39" (effects (font (size 1.27 1.27))))
      )
      (pin input line (at -12.7 15.24 0) (length 2.54)
        (name "DB3" (effects (font (size 1.27 1.27))))
        (number "4" (effects (font (size 1.27 1.27))))
      )
      (pin input line (at 11.43 22.86 180) (length 2.54)
        (name "Vcc" (effects (font (size 1.27 1.27))))
        (number "40" (effects (font (size 1.27 1.27))))
      )
      (pin input line (at -12.7 12.7 0) (length 2.54)
        (name "DB2" (effects (font (size 1.27 1.27))))
        (number "5" (effects (font (size 1.27 1.27))))
      )
      (pin input line (at -12.7 10.16 0) (length 2.54)
        (name "DB1" (effects (font (size 1.27 1.27))))
        (number "6" (effects (font (size 1.27 1.27))))
      )
      (pin input line (at -12.7 7.62 0) (length 2.54)
        (name "DB0" (effects (font (size 1.27 1.27))))
        (number "7" (effects (font (size 1.27 1.27))))
      )
      (pin input line (at -12.7 5.08 0) (length 2.54)
        (name "~{IRQ}" (effects (font (size 1.27 1.27))))
        (number "8" (effects (font (size 1.27 1.27))))
      )
      (pin input line (at -12.7 2.54 0) (length 2.54)
        (name "LP" (effects (font (size 1.27 1.27))))
        (number "9" (effects (font (size 1.27 1.27))))
      )
    )
  )
)
